<svg width="41" height="32" viewBox="0 0 41 32" fill="none" xmlns="http://www.w3.org/2000/svg">
<path d="M30.6189 2H10.381C5.91011 2 2.28577 5.62434 2.28577 10.0952V22.238C2.28577 26.7088 5.91011 30.3332 10.381 30.3332H30.6189C35.0898 30.3332 38.7141 26.7088 38.7141 22.238V10.0952C38.7141 5.62434 35.0898 2 30.6189 2Z" fill="#E12D15" stroke="#F86F5D" stroke-width="3" stroke-linecap="round" stroke-linejoin="round"/>
<path d="M16.4524 10.0952L26.5714 16.1666L16.4524 22.238V10.0952Z" fill="white" stroke="white" stroke-width="3" stroke-linecap="round" stroke-linejoin="round"/>
</svg>
