<svg width="40" height="40" viewBox="0 0 40 40" fill="none" xmlns="http://www.w3.org/2000/svg">
<path d="M9.74695 20.253H30.253M20 30.5061L20 10" stroke="#2D2D2D" stroke-width="2"/>
<path d="M20 1C24.4295 1 28.7198 2.54762 32.1292 5.37533C35.5387 8.20303 37.853 12.1331 38.6722 16.4862C39.4914 20.8393 38.7639 25.3418 36.6155 29.2154C34.4671 33.089 31.0329 36.0902 26.9064 37.7003C22.7799 39.3104 18.2205 39.4282 14.0164 38.0332C9.81231 36.6382 6.22772 33.8182 3.88226 30.0607C1.5368 26.3031 0.5779 21.8442 1.17131 17.4546C1.76472 13.0651 3.87314 9.02076 7.13211 6.02085" stroke="#DDEA37" stroke-width="2"/>
</svg>
