<svg width="122" height="199" viewBox="0 0 122 199" fill="none" xmlns="http://www.w3.org/2000/svg">
<path d="M122 99.5L122 0C122 80 68.095 84.8102 9.49994 97.0837C2.0421 98.6459 -5.76895e-05 98 -5.7755e-05 99.5C-5.78206e-05 101 2.0377 100.326 9.49994 101.843C67.964 113.724 122 117.5 122 199L122 99.5Z" fill="#1D89D7"/>
</svg>
